…
### Word frequency

What did people talk about when they talk about "Petco"? To find the most common words associated with "Petco" in this tweet corpus, I count occurrences of each unique word, filter out the most 50 common words and order them most to least frequent.


```r
tidy_tweets %>%
  count(word, sort = TRUE) %>%
  filter(word != 'petco') %>% 
  head(50)
```

```
# A tibble: 50 x 2
   word         n
   <chr>    <int>
 1 @petco     147
 2 dog         38
 3 saturday    33
 4 meet        31
 5 tomorrow    28
 6 pet         27
 7 adoption    25
 8 store       23
 9 foster      22
10 home        20
# ... with 40 more rows
```
…
